verilog work "ipcore_dir/nes_clk.v"
vhdl work "ipcore_dir/DualPortRAM_Block.vhd"
vhdl work "../src/CtrlModule/ZPUFlex/RTL/zpupkg.vhd"
vhdl work "../src/CtrlModule/CtrlModule/CharROM/CharROM_ROM.vhd"
verilog work "../src/compat.v"
verilog work "ipcore_dir/ram8k.v"
verilog work "ipcore_dir/ram2k.v"
vhdl work "../src/CtrlModule/ZPUFlex/RTL/zpu_core_flex.vhd"
vhdl work "../src/CtrlModule/CtrlModule/RTL/spi.vhd"
vhdl work "../src/CtrlModule/CtrlModule/RTL/OnScreenDisplay.vhd"
vhdl work "../src/CtrlModule/CtrlModule/RTL/io_ps2_com.vhd"
vhdl work "../src/CtrlModule/CtrlModule/RTL/interrupt_controller.vhd"
vhdl work "../src/CtrlModule/CtrlModule/Firmware/CtrlROM_ROM.vhd"
verilog work "ipcore_dir/fifo_loader.v"
verilog work "../src/vga.v"
verilog work "../src/sigma_delta_dac.v"
verilog work "../src/nes.v"
verilog work "../src/multiboot_v4.v"
verilog work "../src/memorycontroller.v"
verilog work "../src/hq2x.v"
verilog work "../src/GameLoader.v"
vhdl work "../src/CtrlModule/CtrlModule/RTL/OSD_Overlay.vhd"
vhdl work "../src/CtrlModule/CtrlModule/RTL/CtrlModule.vhd"
verilog work "../src/unoxt/leds.v"
verilog work "../src/unoxt/joystick.v"
verilog work "../src/NES_ZXUNO.v"
verilog work "../src/unoxt/unoxt_top.v"
